,latitude,longitude,cumPrecipt
46,48.945,12.4639,
103,48.896,12.217,1.4404371584699458
118,49.4053,12.2852,1.695355191256831
128,49.0844,12.3232,1.6202185792349733
572,49.2986,12.24,1.531420765027323
589,48.8846,12.7453,1.7808743169398908
851,49.2504,12.6042,1.5934426229508192
1391,49.7209,12.2916,1.8035519125683073
1392,49.7316,12.3489,2.0822404371584686
1466,49.481,11.9786,1.7240437158469952
1528,49.3025,12.834,1.743442622950819
1575,48.8271,12.3908,1.6633879781420766
1729,49.6993,11.9594,1.583757961783439
2499,49.1572,11.9604,1.6030054644808736
2867,48.8269,12.0592,1.7057377049180336
3147,48.7725,12.2179,1.5997267759562839
3429,49.4497,12.1874,
3578,48.9832,12.1443,1.4459016393442627
3617,49.1658,12.2788,1.5581967213114756
3723,48.7438,12.7516,1.5866120218579238
3739,49.4521,12.4365,1.5795081967213116
3901,48.9634,12.0071,1.5592896174863389
4104,49.0425,12.1019,1.4657534246575337
4106,49.1388,12.1164,1.4319672131147536
4224,49.2412,12.4125,1.6016393442622956
4387,49.0029,12.8237,3.032240437158471
4493,49.4116,12.076,1.500819672131147
4494,49.2806,11.914,1.463934426229508
4546,49.5273,12.5705,2.1202185792349724
4559,49.1644,12.6175,1.5393442622950821
4592,49.3278,12.0871,1.4153005464480877
4816,49.0568,12.6395,
4911,48.8275,12.5597,1.63032786885246
5013,49.2187,12.0624,
5015,49.5238,12.4175,2.2021857923497263
5036,49.4038,12.6062,
5251,49.6323,12.3309,2.0325136612021875
5285,49.618,12.4895,1.8183060109289622
5397,49.6663,12.1845,1.7464480874316939
5401,49.2717,12.7451,2.013934426229509
5485,49.5213,12.0972,1.5691256830601101
5548,49.032,12.5505,2.129508196721312
5658,48.996,12.3475,1.8418032786885252
5753,49.1133,12.4338,1.9568306010928975
5959,48.9572,12.606,2.0669398907103833
6216,49.5321,12.2798,1.6680327868852463
7350,49.1088,12.8231,1.7491803278688538
7370,49.391,12.6838,1.7775956284153016
